Homework 3: K-Nearest Neighbors
…
Create a recipe to center and scale your data sets using the mean and standard deviation from your training set.

recipe_train <- recipe(Species ~ ., data = iris_train) |>
  step_center(all_predictors()) |>
  step_scale(all_predictors())

#prepare the recipe
prepped_train_recipe <- prep(recipe_train, training = iris_train)

# applying to training set
iris_train_prepped <- bake(prepped_train_recipe, new_data = iris_train)

iris_train_prepped

# A tibble: 105 × 5
   Sepal.Length Sepal.Width Petal.Length Petal.Width Species
          <dbl>       <dbl>        <dbl>       <dbl> <fct>  
 1       -0.877      1.07          -1.33       -1.32 setosa 
 2       -1.12      -0.0715        -1.33       -1.32 setosa 
 3       -1.37       0.383         -1.39       -1.32 setosa 
 4       -1.49       0.156         -1.27       -1.32 setosa 
 5       -0.508      1.98          -1.16       -1.05 setosa 
 6       -1.49       0.838         -1.33       -1.18 setosa 
 7       -1.00       0.838         -1.27       -1.32 setosa 
 8       -0.508      1.52          -1.27       -1.32 setosa 
 9       -1.25      -0.0715        -1.33       -1.45 setosa 
10       -1.86      -0.0715        -1.50       -1.45 setosa 
# ℹ 95 more rows
…
Type of response variable: nominal
Minimal misclassification: 0.0952381
Best kernel: rectangular
Best k: 1

We would like to understand how the method of \(K\)-nearest neighbors will classify points in the plane. That is, we would like to view the decision boundaries of this model. To do this, we will use our model to classify a large grid of points in the plane, and color them by their classification. The code below creates a data frame called grid consisting of 6.25^{4} points in the plane.

 g1 <- rep((200:450)*(1/100), 250)
 g2 <- rep((0:250)*(1/100), each = 250)
 grid <- tibble(Sepal.Width = g1, Petal.Width = g2)
 grid

# A tibble: 62,750 × 2
   Sepal.Width Petal.Width
         <dbl>       <dbl>
 1        2              0
 2        2.01           0
 3        2.02           0
 4        2.03           0
 5        2.04           0
 6        2.05           0
 7        2.06           0
 8        2.07           0
 9        2.08           0
10        2.09           0
# ℹ 62,740 more rows
…
