Hack-a-thon
…
Use XGBoost

Showing all the predicted values fro the best model based on accuracy.

# Predicting based on 0/1 levels.
xgb_predictions <- predict(xgb_fit, new_data = census_test, type = "class")
xgb_predictions

# A tibble: 13,840 × 1
   .pred_class
   <fct>      
 1 0          
 2 0          
 3 0          
 4 0          
 5 0          
 6 0          
 7 0          
 8 0          
 9 0          
10 0          
# ℹ 13,830 more rows
