Homework 6: Feature/Model Selection and Regularization
…
Since, Ridge has lower RMSE, it is better.

#onlt extracting non zero variables. 
lasso_coefs <- tidy(extract_fit_parsnip(final_lasso_fit)) |> 
  filter(estimate != 0) |> 
  select(term, estimate)

lasso_coefs

# A tibble: 65 × 2
   term           estimate
   <chr>             <dbl>
 1 (Intercept)       592. 
 2 population       -108. 
 3 racepctblack       68.0
 4 racePctWhite      -22.1
 5 racePctAsian      -33.5
 6 racePctHisp        20.7
 7 agePct12t29       -80.7
 8 pctUrban           33.0
 9 medIncome         -38.4
10 PctPopUnderPov     35.0
# ℹ 55 more rows
…
