Homework 7: Regression Trees
…
#irregular grid
irregular_grid <- grid_latin_hypercube(
  cost_complexity(),
  tree_depth(range = c(1, 30)),
  min_n(range = c(2, 20)),
  size = 100
)

Warning: `grid_latin_hypercube()` was deprecated in dials 1.3.0.
ℹ Please use `grid_space_filling()` instead.

irregular_grid

# A tibble: 100 × 3
   cost_complexity tree_depth min_n
             <dbl>      <int> <int>
 1    0.000157              3    16
 2    0.000217             14    19
 3    0.00230              11     7
 4    0.0000000766         26    12
 5    0.0000340            15     8
 6    0.0000398            16     9
 7    0.000000754           7     4
 8    0.00000748           21     2
 9    0.000312             12    11
10    0.0000000129         11    10
# ℹ 90 more rows
…
