Homework 05: Preprocessing and Cross Validation
…
library(stringr)

# Extract numerical weight values in kg and rename column
lego <- lego |> mutate(
  Weight = case_when(
    str_detect(Weight, "Kg") ~ as.numeric(str_extract(Weight, "[0-9]+\\.?[0-9]*")),  # Extract Kg value
    TRUE ~ NA_real_  # Keep NA values
  )
) |> rename(`Weight (kg)` = Weight)  # Rename column

# View the cleaned dataset
print(lego)

# A tibble: 400 × 12
   Theme          Pieces Amazon_Price  Year Ages     Pages Minifigures Packaging
   <chr>           <dbl>        <dbl> <dbl> <chr>    <dbl>       <dbl> <chr>    
 1 LEGO Frozen 2     701         64.0  2019 Ages_6+    180           4 <NA>     
 2 DUPLO             121         95.6  2019 Ages_2+     48           6 Box      
 3 Star Wars         519         57.1  2020 Ages_10+    72           1 Box      
 4 Creator 3-in-1    595         40    2019 Ages_8+    236           3 Box      
 5 Overwatch         227         20.0  2019 Ages_9+     84           1 Box      
 6 Friends           500         34    2018 Ages_6-…     4          NA Box      
 7 NINJAGO           308         63.9  2018 Ages_7-…   112           2 Box      
 8 Star Wars        1177        200.   2019 Ages_8+     25          NA Box      
 9 Ideas             962        154    2018 Ages_12+   156          NA Box      
10 Friends           183         49.9  2018 Ages_6-…    68           1 Box      
# ℹ 390 more rows
# ℹ 4 more variables: `Weight (kg)` <dbl>, Unique_Pieces <dbl>,
#   Availability <chr>, Size <chr>
…
